…
### hflight 패키지 활용

#### tbl_df()

```R
> library(hflights)

> hflights <- tbl_df(hflights)  

> print(hflights)
# A tibble: 227,496 x 21
    Year Month DayofMonth DayOfWeek DepTime ArrTime UniqueCarrier
   <int> <int>      <int>     <int>   <int>   <int> <chr>        
 1  2011     1          1         6    1400    1500 AA           
 2  2011     1          2         7    1401    1501 AA           
 3  2011     1          3         1    1352    1502 AA           
 4  2011     1          4         2    1403    1513 AA           
 5  2011     1          5         3    1405    1507 AA           
 6  2011     1          6         4    1359    1503 AA           
 7  2011     1          7         5    1359    1509 AA           
 8  2011     1          8         6    1355    1454 AA           
 9  2011     1          9         7    1443    1554 AA           
10  2011     1         10         1    1443    1553 AA           
# ... with 227,486 more rows, and 14 more variables:
#   FlightNum <int>, TailNum <chr>, ActualElapsedTime <int>,
#   AirTime <int>, ArrDelay <int>, DepDelay <int>, Origin <chr>,
#   Dest <chr>, Distance <int>, TaxiIn <int>, TaxiOut <int>,
#   Cancelled <int>, CancellationCode <chr>, Diverted <int>
```



#### 1. 1월의 2일 모든 비행기의 이착률 정보 추출

```R
> hflights12 <-hflights %>% filter(Month %in% c(1,2))

> print(hflights12)
# A tibble: 36,038 x 21
    Year Month DayofMonth DayOfWeek DepTime ArrTime UniqueCarrier
   <int> <int>      <int>     <int>   <int>   <int> <chr>        
 1  2011     1          1         6    1400    1500 AA           
 2  2011     1          2         7    1401    1501 AA           
 3  2011     1          3         1    1352    1502 AA           
 4  2011     1          4         2    1403    1513 AA           
 5  2011     1          5         3    1405    1507 AA           
 6  2011     1          6         4    1359    1503 AA           
 7  2011     1          7         5    1359    1509 AA           
 8  2011     1          8         6    1355    1454 AA           
 9  2011     1          9         7    1443    1554 AA           
10  2011     1         10         1    1443    1553 AA           
# ... with 36,028 more rows, and 14 more variables: FlightNum <int>,
#   TailNum <chr>, ActualElapsedTime <int>, AirTime <int>,
#   ArrDelay <int>, DepDelay <int>, Origin <chr>, Dest <chr>,
#   Distance <int>, TaxiIn <int>, TaxiOut <int>, Cancelled <int>,
#   CancellationCode <chr>, Diverted <int>
```



#### 2. 년, 월, 출발시간, 도착시간순으로 오름차순 정렬

```R
> arrange(hflights, Year,Month, DepTime,ArrTime)
# A tibble: 227,496 x 21
    Year Month DayofMonth DayOfWeek DepTime ArrTime UniqueCarrier
   <int> <int>      <int>     <int>   <int>   <int> <chr>        
 1  2011     1          1         6       1     621 CO           
 2  2011     1         21         5       4      46 XE           
 3  2011     1          4         2       5      59 OO           
 4  2011     1         27         4      11     216 CO           
 5  2011     1         27         4      17     240 XE           
 6  2011     1          9         7      22     117 WN           
 7  2011     1         28         5     226     310 XE           
 8  2011     1         18         2     537     829 DL           
 9  2011     1         25         2     538     824 DL           
10  2011     1          7         5     538     832 DL           
# ... with 227,486 more rows, and 14 more variables:
#   FlightNum <int>, TailNum <chr>, ActualElapsedTime <int>,
#   AirTime <int>, ArrDelay <int>, DepDelay <int>, Origin <chr>,
#   Dest <chr>, Distance <int>, TaxiIn <int>, TaxiOut <int>,
#   Cancelled <int>, CancellationCode <chr>, Diverted <int>
```



#### 3. hflights데이터셋을 년(오름차순), 월(오름차순), 출발시간(내림차순), 도착시간(오름차순) 정렬

```R
> arrange(hflights,Year,Month,desc(DepTime),ArrTime)
# A tibble: 227,496 x 21
    Year Month DayofMonth DayOfWeek DepTime ArrTime UniqueCarrier
   <int> <int>      <int>     <int>   <int>   <int> <chr>        
 1  2011     1          2         7    2335      32 WN           
 2  2011     1          2         7    2334     121 CO           
 3  2011     1         27         4    2329      14 WN           
 4  2011     1          6         4    2325      10 XE           
 5  2011     1         20         4    2325      17 XE           
 6  2011     1          3         1    2321     110 CO           
 7  2011     1         17         1    2315       8 XE           
 8  2011     1         14         5    2315      20 XE           
 9  2011     1         27         4    2315    2355 XE           
10  2011     1         27         4    2313       3 XE           
# ... with 227,486 more rows, and 14 more variables:
#   FlightNum <int>, TailNum <chr>, ActualElapsedTime <int>,
#   AirTime <int>, ArrDelay <int>, DepDelay <int>, Origin <chr>,
#   Dest <chr>, Distance <int>, TaxiIn <int>, TaxiOut <int>,
#   Cancelled <int>, CancellationCode <chr>, Diverted <int>
```



#### 4. hflights데이터셋으로부터 년, 월, 출발시간, 도착시간 컬럼만 검색

```r
> select(hflights, Year,Month,DepTime,ArrTime)
# A tibble: 227,496 x 4
    Year Month DepTime ArrTime
   <int> <int>   <int>   <int>
 1  2011     1    1400    1500
 2  2011     1    1401    1501
 3  2011     1    1352    1502
 4  2011     1    1403    1513
 5  2011     1    1405    1507
 6  2011     1    1359    1503
 7  2011     1    1359    1509
 8  2011     1    1355    1454
 9  2011     1    1443    1554
10  2011     1    1443    1553
# ... with 227,486 more rows
```



#### 5. hflights데이터셋으로부터 출발지연시간과 도착지연시간과의 차리를 계산한 컬럼 추가

```R
f_def<-flights_df %>% mutate(def=(ArrDelay-DepDelay))
> f_def1<-f_def %>% select(Year,Month,def)
> print(f_def1)
# A tibble: 227,496 x 3
    Year Month   def
   <int> <int> <int>
 1  2011     1   -10
 2  2011     1   -10
 3  2011     1     0
 4  2011     1     0
 5  2011     1    -8
 6  2011     1    -6
 7  2011     1     0
 8  2011     1   -11
 9  2011     1     1
10  2011     1     0
# ... with 227,486 more rows
```
…
  arrTimeSd arrTimeVar
1  56.55523   3198.494
```

## ggplot2

```R
install.packages("ggplot2")
library(ggplot2)
mpg <- as.data.frame(ggplot2::mpg)
mpg1<-tbl_df(mpg)
> print(mpg1)
# A tibble: 234 x 11
   manufacturer model displ  year   cyl trans drv     cty   hwy fl   
   <chr>        <chr> <dbl> <int> <int> <chr> <chr> <int> <int> <chr>
 1 audi         a4      1.8  1999     4 auto~ f        18    29 p    
 2 audi         a4      1.8  1999     4 manu~ f        21    29 p    
 3 audi         a4      2    2008     4 manu~ f        20    31 p    
 4 audi         a4      2    2008     4 auto~ f        21    30 p    
 5 audi         a4      2.8  1999     6 auto~ f        16    26 p    
 6 audi         a4      2.8  1999     6 manu~ f        18    26 p    
 7 audi         a4      3.1  2008     6 auto~ f        18    27 p    
 8 audi         a4 q~   1.8  1999     4 manu~ 4        18    26 p    
 9 audi         a4 q~   1.8  1999     4 auto~ 4        16    25 p    
10 audi         a4 q~   2    2008     4 manu~ 4        20    28 p    
# ... with 224 more rows, and 1 more variable: class <chr>
…
